{
    "modules": [
        {
            "config": {
                "position": [
                    131,
                    99
                ]
            },
            "name": "New Model Object",
            "value": {
                "actionGroup": {
                    "_default0_list": true,
                    "_default1_show": false,
                    "_default2_new_create": false,
                    "_default3_edit_update": false,
                    "_default4_delete": false,
                    "customActions": [

                    ]
                },
                "name": "User",
                "objectsettings": {
                    "addDeletedField": true,
                    "addHiddenField": true,
                    "addStarttimeEndtimeFields": true,
                    "aggregateRoot": true,
                    "categorizable": false,
                    "description": "",
                    "mapToTable": "",
                    "parentClass": "",
                    "sorting": false,
                    "type": "Entity",
                    "uid": "243240132678"
                },
                "propertyGroup": {
                    "properties": [
                        {
                            "allowedFileTypes": "",
                            "maxItems": "1",
                            "propertyDescription": "",
                            "propertyIsExcludeField": true,
                            "propertyIsRequired": false,
                            "propertyName": "title",
                            "propertyType": "String",
                            "uid": "1178656680229"
                        }
                    ]
                },
                "relationGroup": {
                    "relations": [

                    ]
                }
            }
        }
    ],
    "properties": {
        "backendModules": [

        ],
        "description": "",
        "emConf": {
            "category": "plugin",
            "custom_category": "",
            "dependsOn": "typo3 => 6.2.0-6.2.99\n",
            "disableLocalization": false,
            "disableVersioning": false,
            "skipGenerateDocumentationTemplate": false,
            "sourceLanguage": "en",
            "state": "alpha",
            "version": ""
        },
        "extensionKey": "ps_user",
        "name": "PS User",
        "originalExtensionKey": "ps_user",
        "persons": [
            {
                "company": "Peak Sourcing",
                "email": "miladin.bojic@gmail.com",
                "name": "Miladin Bojic",
                "role": "Developer"
            }
        ],
        "plugins": [
            {
                "actions": {
                    "controllerActionCombinations": "",
                    "noncacheableActions": "",
                    "switchableActions": ""
                },
                "key": "user",
                "name": "User"
            }
        ],
        "vendorName": "Peaksourcing"
    },
    "wires": [

    ],
    "log": {
        "last_modified": "2015-12-22 02:45",
        "extension_builder_version": "6.2",
        "be_user": " (1)"
    }
}